﻿<?xml version="1.0" encoding="UTF-8"?>
<TestRun id="5cd76393-265d-497a-95b9-29fe987890bf" name="Joshua@JOSHUA-PC 2014-01-13 00:37:44" runUser="Joshua-PC\Joshua" xmlns="http://microsoft.com/schemas/VisualStudio/TeamTest/2010">
  <TestSettings name="Local" id="9e472c4c-e7b1-4c47-82fe-39335f0b17a4">
    <Description>These are default test settings for a local test run.</Description>
    <Deployment runDeploymentRoot="Joshua_JOSHUA-PC 2014-01-13 00_37_44">
      <DeploymentItem filename="C:\Users\Joshua\Desktop\Degree Assignments\Software Engineering\acortis-duplicate-file-find-and-delete-se-project-1-4d0228510967\DuplicateFileFindAndDelete\bin\Debug\DuplicateFileFindAndDelete.exe" />
      <DeploymentItem filename="C:\Users\Joshua\Desktop\Degree Assignments\Software Engineering\acortis-duplicate-file-find-and-delete-se-project-1-4d0228510967\FileFindAndDeleteLibrary\bin\Debug\FileFindAndDeleteLibrary.dll" />
    </Deployment>
    <Execution>
      <TestTypeSpecific>
        <UnitTestRunConfig testTypeId="13cdc9d9-ddb5-4fa4-a97d-d965ccfc6d4b">
          <AssemblyResolution>
            <TestDirectory useLoadContext="true" />
          </AssemblyResolution>
        </UnitTestRunConfig>
      </TestTypeSpecific>
      <AgentRule name="Execution Agents">
      </AgentRule>
    </Execution>
  </TestSettings>
  <Times creation="2014-01-13T00:37:44.8234766+01:00" queuing="2014-01-13T00:37:44.9904861+01:00" start="2014-01-13T00:37:44.9994866+01:00" finish="2014-01-13T00:37:45.6735252+01:00" />
  <ResultSummary outcome="Completed">
    <Counters total="4" executed="4" passed="4" error="0" failed="0" timeout="0" aborted="0" inconclusive="0" passedButRunAborted="0" notRunnable="0" notExecuted="0" disconnected="0" warning="0" completed="0" inProgress="0" pending="0" />
  </ResultSummary>
  <TestDefinitions>
    <UnitTest name="AddFileIconTest" storage="c:\users\joshua\desktop\degree assignments\software engineering\acortis-duplicate-file-find-and-delete-se-project-1-4d0228510967\testproject\bin\debug\testproject.dll" id="fab7c165-8ee6-227c-6c6f-8fcca91a53eb">
      <DeploymentItems>
        <DeploymentItem filename="TestProject\CSV\AddFileIcon.csv" />
      </DeploymentItems>
      <Execution id="55150308-4f05-4965-9927-8669e8ced5f4" />
      <TestMethod codeBase="C:/Users/Joshua/Desktop/Degree Assignments/Software Engineering/acortis-duplicate-file-find-and-delete-se-project-1-4d0228510967/TestProject/bin/Debug/TestProject.DLL" adapterTypeName="Microsoft.VisualStudio.TestTools.TestTypes.Unit.UnitTestAdapter, Microsoft.VisualStudio.QualityTools.Tips.UnitTest.Adapter, Version=10.0.0.0, Culture=neutral, PublicKeyToken=b03f5f7f11d50a3a" className="TestProject.IconListManagerTest, TestProject, Version=1.0.0.0, Culture=neutral, PublicKeyToken=null" name="AddFileIconTest" />
      <DataSource connectionString="|DataDirectory|\AddFileIcon.csv" providerInvariantName="Microsoft.VisualStudio.TestTools.DataSource.CSV" tableName="AddFileIcon#csv" />
    </UnitTest>
  </TestDefinitions>
  <TestLists>
    <TestList name="Results Not in a List" id="8c84fa94-04c1-424b-9868-57a2d4851a1d" />
    <TestList name="All Loaded Results" id="19431567-8539-422a-85d7-44ee4e166bda" />
  </TestLists>
  <TestEntries>
    <TestEntry testId="fab7c165-8ee6-227c-6c6f-8fcca91a53eb" executionId="55150308-4f05-4965-9927-8669e8ced5f4" testListId="8c84fa94-04c1-424b-9868-57a2d4851a1d" />
  </TestEntries>
  <Results>
    <UnitTestResult executionId="55150308-4f05-4965-9927-8669e8ced5f4" testId="fab7c165-8ee6-227c-6c6f-8fcca91a53eb" testName="AddFileIconTest" computerName="JOSHUA-PC" duration="00:00:00.2949727" startTime="2014-01-13T00:37:45.0024868+01:00" endTime="2014-01-13T00:37:45.6535240+01:00" testType="13cdc9d9-ddb5-4fa4-a97d-d965ccfc6d4b" outcome="Passed" testListId="8c84fa94-04c1-424b-9868-57a2d4851a1d" relativeResultsDirectory="55150308-4f05-4965-9927-8669e8ced5f4" resultType="DataDrivenTest">
      <Counters error="0" failed="0" timeout="0" aborted="0" inconclusive="0" passedButRunAborted="0" notRunnable="0" notExecuted="0" disconnected="0" warning="0" passed="3" completed="0" inProgress="0" pending="0" />
      <InnerResults>
        <UnitTestResult executionId="d1c55b91-6216-4d55-b94e-82ddc8965e19" parentExecutionId="55150308-4f05-4965-9927-8669e8ced5f4" testId="fab7c165-8ee6-227c-6c6f-8fcca91a53eb" testName="AddFileIconTest" computerName="JOSHUA-PC" duration="00:00:00.0288373" startTime="2014-01-13T00:37:45.5055156+01:00" endTime="2014-01-13T00:37:45.5415176+01:00" testType="13cdc9d9-ddb5-4fa4-a97d-d965ccfc6d4b" outcome="Passed" testListId="8c84fa94-04c1-424b-9868-57a2d4851a1d" relativeResultsDirectory="55150308-4f05-4965-9927-8669e8ced5f4" dataRowInfo="0" resultType="DataDrivenDataRow" />
        <UnitTestResult executionId="82d2db50-96fb-4ad6-8c0b-35a8b491f8d0" parentExecutionId="55150308-4f05-4965-9927-8669e8ced5f4" testId="fab7c165-8ee6-227c-6c6f-8fcca91a53eb" testName="AddFileIconTest" computerName="JOSHUA-PC" duration="00:00:00.0850654" startTime="2014-01-13T00:37:45.5415176+01:00" endTime="2014-01-13T00:37:45.6285226+01:00" testType="13cdc9d9-ddb5-4fa4-a97d-d965ccfc6d4b" outcome="Passed" testListId="8c84fa94-04c1-424b-9868-57a2d4851a1d" relativeResultsDirectory="55150308-4f05-4965-9927-8669e8ced5f4" dataRowInfo="1" resultType="DataDrivenDataRow" />
        <UnitTestResult executionId="bd6539ab-deba-491a-add4-5192963245f3" parentExecutionId="55150308-4f05-4965-9927-8669e8ced5f4" testId="fab7c165-8ee6-227c-6c6f-8fcca91a53eb" testName="AddFileIconTest" computerName="JOSHUA-PC" duration="00:00:00.0001758" startTime="2014-01-13T00:37:45.6285226+01:00" endTime="2014-01-13T00:37:45.6285226+01:00" testType="13cdc9d9-ddb5-4fa4-a97d-d965ccfc6d4b" outcome="Passed" testListId="8c84fa94-04c1-424b-9868-57a2d4851a1d" relativeResultsDirectory="55150308-4f05-4965-9927-8669e8ced5f4" dataRowInfo="2" resultType="DataDrivenDataRow" />
      </InnerResults>
    </UnitTestResult>
  </Results>
</TestRun>