﻿<?xml version="1.0" encoding="UTF-8"?>
<TestRun id="57d675aa-4eab-4c86-8ada-3198b61ba520" name="Joshua@JOSHUA-PC 2014-01-12 14:41:15" runUser="Joshua-PC\Joshua" xmlns="http://microsoft.com/schemas/VisualStudio/TeamTest/2010">
  <TestSettings name="Local" id="9e472c4c-e7b1-4c47-82fe-39335f0b17a4">
    <Description>These are default test settings for a local test run.</Description>
    <Deployment runDeploymentRoot="Joshua_JOSHUA-PC 2014-01-12 14_41_15">
      <DeploymentItem filename="C:\Users\Joshua\Desktop\Degree Assignments\Software Engineering\acortis-duplicate-file-find-and-delete-se-project-1-4d0228510967\DuplicateFileFindAndDelete\bin\Debug\DuplicateFileFindAndDelete.exe" />
      <DeploymentItem filename="C:\Users\Joshua\Desktop\Degree Assignments\Software Engineering\acortis-duplicate-file-find-and-delete-se-project-1-4d0228510967\FileFindAndDeleteLibrary\bin\Debug\FileFindAndDeleteLibrary.dll" />
    </Deployment>
    <Execution>
      <TestTypeSpecific>
        <UnitTestRunConfig testTypeId="13cdc9d9-ddb5-4fa4-a97d-d965ccfc6d4b">
          <AssemblyResolution>
            <TestDirectory useLoadContext="true" />
          </AssemblyResolution>
        </UnitTestRunConfig>
      </TestTypeSpecific>
      <AgentRule name="Execution Agents">
      </AgentRule>
    </Execution>
  </TestSettings>
  <Times creation="2014-01-12T14:41:15.7049575+01:00" queuing="2014-01-12T14:41:15.9689726+01:00" start="2014-01-12T14:41:15.9779731+01:00" finish="2014-01-12T14:41:16.6870137+01:00" />
  <ResultSummary outcome="Failed">
    <Counters total="6" executed="6" passed="1" error="0" failed="5" timeout="0" aborted="0" inconclusive="0" passedButRunAborted="0" notRunnable="0" notExecuted="0" disconnected="0" warning="0" completed="0" inProgress="0" pending="0" />
  </ResultSummary>
  <TestDefinitions>
    <UnitTest name="AddExtensionTest" storage="c:\users\joshua\desktop\degree assignments\software engineering\acortis-duplicate-file-find-and-delete-se-project-1-4d0228510967\testproject\bin\debug\testproject.dll" id="dbd208f0-d649-3530-deac-e77dfd7d77df">
      <DeploymentItems>
        <DeploymentItem filename="DuplicateFileFindAndDelete.exe" />
        <DeploymentItem filename="TestProject\AddExtension.csv" />
      </DeploymentItems>
      <Execution id="d0a138bc-edc8-4d78-bb39-5c9b5b9c5f0e" />
      <TestMethod codeBase="C:/Users/Joshua/Desktop/Degree Assignments/Software Engineering/acortis-duplicate-file-find-and-delete-se-project-1-4d0228510967/TestProject/bin/Debug/TestProject.DLL" adapterTypeName="Microsoft.VisualStudio.TestTools.TestTypes.Unit.UnitTestAdapter, Microsoft.VisualStudio.QualityTools.Tips.UnitTest.Adapter, Version=10.0.0.0, Culture=neutral, PublicKeyToken=b03f5f7f11d50a3a" className="TestProject.IconListManagerTest, TestProject, Version=1.0.0.0, Culture=neutral, PublicKeyToken=null" name="AddExtensionTest" />
      <DataSource connectionString="|DataDirectory|\AddExtension.csv" providerInvariantName="Microsoft.VisualStudio.TestTools.DataSource.CSV" tableName="AddExtension#csv" />
    </UnitTest>
  </TestDefinitions>
  <TestLists>
    <TestList name="Results Not in a List" id="8c84fa94-04c1-424b-9868-57a2d4851a1d" />
    <TestList name="All Loaded Results" id="19431567-8539-422a-85d7-44ee4e166bda" />
  </TestLists>
  <TestEntries>
    <TestEntry testId="dbd208f0-d649-3530-deac-e77dfd7d77df" executionId="d0a138bc-edc8-4d78-bb39-5c9b5b9c5f0e" testListId="8c84fa94-04c1-424b-9868-57a2d4851a1d" />
  </TestEntries>
  <Results>
    <UnitTestResult executionId="d0a138bc-edc8-4d78-bb39-5c9b5b9c5f0e" testId="dbd208f0-d649-3530-deac-e77dfd7d77df" testName="AddExtensionTest" computerName="JOSHUA-PC" duration="00:00:00.3357020" startTime="2014-01-12T14:41:15.9809733+01:00" endTime="2014-01-12T14:41:16.6620123+01:00" testType="13cdc9d9-ddb5-4fa4-a97d-d965ccfc6d4b" outcome="Failed" testListId="8c84fa94-04c1-424b-9868-57a2d4851a1d" relativeResultsDirectory="d0a138bc-edc8-4d78-bb39-5c9b5b9c5f0e" resultType="DataDrivenTest">
      <Counters error="0" failed="4" timeout="0" aborted="0" inconclusive="0" passedButRunAborted="0" notRunnable="0" notExecuted="0" disconnected="0" warning="0" passed="1" completed="0" inProgress="0" pending="0" />
      <InnerResults>
        <UnitTestResult executionId="598d4ddb-1ae1-44f1-9cc9-d2ac507cca1e" parentExecutionId="d0a138bc-edc8-4d78-bb39-5c9b5b9c5f0e" testId="dbd208f0-d649-3530-deac-e77dfd7d77df" testName="AddExtensionTest" computerName="JOSHUA-PC" duration="00:00:00.0946897" startTime="2014-01-12T14:41:16.4950027+01:00" endTime="2014-01-12T14:41:16.5990087+01:00" testType="13cdc9d9-ddb5-4fa4-a97d-d965ccfc6d4b" outcome="Passed" testListId="8c84fa94-04c1-424b-9868-57a2d4851a1d" relativeResultsDirectory="d0a138bc-edc8-4d78-bb39-5c9b5b9c5f0e" dataRowInfo="0" resultType="DataDrivenDataRow" />
        <UnitTestResult executionId="ae4b7669-9012-4911-b1d8-a25611550b17" parentExecutionId="d0a138bc-edc8-4d78-bb39-5c9b5b9c5f0e" testId="dbd208f0-d649-3530-deac-e77dfd7d77df" testName="AddExtensionTest" computerName="JOSHUA-PC" duration="00:00:00.0313347" startTime="2014-01-12T14:41:16.5990087+01:00" endTime="2014-01-12T14:41:16.6310105+01:00" testType="13cdc9d9-ddb5-4fa4-a97d-d965ccfc6d4b" outcome="Failed" testListId="8c84fa94-04c1-424b-9868-57a2d4851a1d" relativeResultsDirectory="d0a138bc-edc8-4d78-bb39-5c9b5b9c5f0e" dataRowInfo="1" resultType="DataDrivenDataRow">
          <Output>
            <ErrorInfo>
              <Message>Assert.Fail failed. Unexpected exception null was thrown</Message>
              <StackTrace>   at TestProject.IconListManagerTest.AddExtensionTest() in C:\Users\Joshua\Desktop\Degree Assignments\Software Engineering\acortis-duplicate-file-find-and-delete-se-project-1-4d0228510967\TestProject\IconListManagerTest.cs:line 102
</StackTrace>
            </ErrorInfo>
          </Output>
        </UnitTestResult>
        <UnitTestResult executionId="5c58a87a-b265-4437-adca-a9132fe7a683" parentExecutionId="d0a138bc-edc8-4d78-bb39-5c9b5b9c5f0e" testId="dbd208f0-d649-3530-deac-e77dfd7d77df" testName="AddExtensionTest" computerName="JOSHUA-PC" duration="00:00:00.0029293" startTime="2014-01-12T14:41:16.6310105+01:00" endTime="2014-01-12T14:41:16.6340107+01:00" testType="13cdc9d9-ddb5-4fa4-a97d-d965ccfc6d4b" outcome="Failed" testListId="8c84fa94-04c1-424b-9868-57a2d4851a1d" relativeResultsDirectory="d0a138bc-edc8-4d78-bb39-5c9b5b9c5f0e" dataRowInfo="2" resultType="DataDrivenDataRow">
          <Output>
            <ErrorInfo>
              <Message>Assert.Fail failed. Unexpected exception null was thrown</Message>
              <StackTrace>   at TestProject.IconListManagerTest.AddExtensionTest() in C:\Users\Joshua\Desktop\Degree Assignments\Software Engineering\acortis-duplicate-file-find-and-delete-se-project-1-4d0228510967\TestProject\IconListManagerTest.cs:line 102
</StackTrace>
            </ErrorInfo>
          </Output>
        </UnitTestResult>
        <UnitTestResult executionId="ad58affa-762f-488b-9249-b7a6c5f41f1d" parentExecutionId="d0a138bc-edc8-4d78-bb39-5c9b5b9c5f0e" testId="dbd208f0-d649-3530-deac-e77dfd7d77df" testName="AddExtensionTest" computerName="JOSHUA-PC" duration="00:00:00.0028718" startTime="2014-01-12T14:41:16.6340107+01:00" endTime="2014-01-12T14:41:16.6370108+01:00" testType="13cdc9d9-ddb5-4fa4-a97d-d965ccfc6d4b" outcome="Failed" testListId="8c84fa94-04c1-424b-9868-57a2d4851a1d" relativeResultsDirectory="d0a138bc-edc8-4d78-bb39-5c9b5b9c5f0e" dataRowInfo="3" resultType="DataDrivenDataRow">
          <Output>
            <ErrorInfo>
              <Message>Assert.Fail failed. Unexpected exception null was thrown</Message>
              <StackTrace>   at TestProject.IconListManagerTest.AddExtensionTest() in C:\Users\Joshua\Desktop\Degree Assignments\Software Engineering\acortis-duplicate-file-find-and-delete-se-project-1-4d0228510967\TestProject\IconListManagerTest.cs:line 102
</StackTrace>
            </ErrorInfo>
          </Output>
        </UnitTestResult>
        <UnitTestResult executionId="ff5cd933-a2cc-45d1-8cb2-ebc1ba621984" parentExecutionId="d0a138bc-edc8-4d78-bb39-5c9b5b9c5f0e" testId="dbd208f0-d649-3530-deac-e77dfd7d77df" testName="AddExtensionTest" computerName="JOSHUA-PC" duration="00:00:00.0028308" startTime="2014-01-12T14:41:16.6370108+01:00" endTime="2014-01-12T14:41:16.6400110+01:00" testType="13cdc9d9-ddb5-4fa4-a97d-d965ccfc6d4b" outcome="Failed" testListId="8c84fa94-04c1-424b-9868-57a2d4851a1d" relativeResultsDirectory="d0a138bc-edc8-4d78-bb39-5c9b5b9c5f0e" dataRowInfo="4" resultType="DataDrivenDataRow">
          <Output>
            <ErrorInfo>
              <Message>Assert.Fail failed. Unexpected exception null was thrown</Message>
              <StackTrace>   at TestProject.IconListManagerTest.AddExtensionTest() in C:\Users\Joshua\Desktop\Degree Assignments\Software Engineering\acortis-duplicate-file-find-and-delete-se-project-1-4d0228510967\TestProject\IconListManagerTest.cs:line 102
</StackTrace>
            </ErrorInfo>
          </Output>
        </UnitTestResult>
      </InnerResults>
    </UnitTestResult>
  </Results>
</TestRun>