﻿<?xml version="1.0" encoding="UTF-8"?>
<TestRun id="99f54d95-b4b3-4d63-975a-d20579cc15d4" name="Joshua@JOSHUA-PC 2014-01-13 01:34:39" runUser="Joshua-PC\Joshua" xmlns="http://microsoft.com/schemas/VisualStudio/TeamTest/2010">
  <TestSettings name="Local" id="9e472c4c-e7b1-4c47-82fe-39335f0b17a4">
    <Description>These are default test settings for a local test run.</Description>
    <Deployment runDeploymentRoot="Joshua_JOSHUA-PC 2014-01-13 01_34_39">
      <DeploymentItem filename="C:\Users\Joshua\Desktop\Degree Assignments\Software Engineering\acortis-duplicate-file-find-and-delete-se-project-1-4d0228510967\DuplicateFileFindAndDelete\bin\Debug\DuplicateFileFindAndDelete.exe" />
      <DeploymentItem filename="C:\Users\Joshua\Desktop\Degree Assignments\Software Engineering\acortis-duplicate-file-find-and-delete-se-project-1-4d0228510967\FileFindAndDeleteLibrary\bin\Debug\FileFindAndDeleteLibrary.dll" />
    </Deployment>
    <Execution>
      <TestTypeSpecific>
        <UnitTestRunConfig testTypeId="13cdc9d9-ddb5-4fa4-a97d-d965ccfc6d4b">
          <AssemblyResolution>
            <TestDirectory useLoadContext="true" />
          </AssemblyResolution>
        </UnitTestRunConfig>
      </TestTypeSpecific>
      <AgentRule name="Execution Agents">
      </AgentRule>
    </Execution>
  </TestSettings>
  <Times creation="2014-01-13T01:34:39.1947674+01:00" queuing="2014-01-13T01:34:39.3067738+01:00" start="2014-01-13T01:34:39.3177745+01:00" finish="2014-01-13T01:34:39.6927959+01:00" />
  <ResultSummary outcome="Completed">
    <Counters total="6" executed="6" passed="6" error="0" failed="0" timeout="0" aborted="0" inconclusive="0" passedButRunAborted="0" notRunnable="0" notExecuted="0" disconnected="0" warning="0" completed="0" inProgress="0" pending="0" />
  </ResultSummary>
  <TestDefinitions>
    <UnitTest name="AddExtensionTest" storage="c:\users\joshua\desktop\degree assignments\software engineering\acortis-duplicate-file-find-and-delete-se-project-1-4d0228510967\testproject\bin\debug\testproject.dll" id="dbd208f0-d649-3530-deac-e77dfd7d77df">
      <DeploymentItems>
        <DeploymentItem filename="TestProject\CSV\AddExtension.csv" />
      </DeploymentItems>
      <Execution id="fddb81cc-3e01-46ed-9756-497375de906e" />
      <TestMethod codeBase="C:/Users/Joshua/Desktop/Degree Assignments/Software Engineering/acortis-duplicate-file-find-and-delete-se-project-1-4d0228510967/TestProject/bin/Debug/TestProject.DLL" adapterTypeName="Microsoft.VisualStudio.TestTools.TestTypes.Unit.UnitTestAdapter, Microsoft.VisualStudio.QualityTools.Tips.UnitTest.Adapter, Version=10.0.0.0, Culture=neutral, PublicKeyToken=b03f5f7f11d50a3a" className="TestProject.IconListManagerTest, TestProject, Version=1.0.0.0, Culture=neutral, PublicKeyToken=null" name="AddExtensionTest" />
      <DataSource connectionString="|DataDirectory|\AddExtension.csv" providerInvariantName="Microsoft.VisualStudio.TestTools.DataSource.CSV" tableName="AddExtension#csv" />
    </UnitTest>
  </TestDefinitions>
  <TestLists>
    <TestList name="Results Not in a List" id="8c84fa94-04c1-424b-9868-57a2d4851a1d" />
    <TestList name="All Loaded Results" id="19431567-8539-422a-85d7-44ee4e166bda" />
  </TestLists>
  <TestEntries>
    <TestEntry testId="dbd208f0-d649-3530-deac-e77dfd7d77df" executionId="fddb81cc-3e01-46ed-9756-497375de906e" testListId="8c84fa94-04c1-424b-9868-57a2d4851a1d" />
  </TestEntries>
  <Results>
    <UnitTestResult executionId="fddb81cc-3e01-46ed-9756-497375de906e" testId="dbd208f0-d649-3530-deac-e77dfd7d77df" testName="AddExtensionTest" computerName="JOSHUA-PC" duration="00:00:00.1457108" startTime="2014-01-13T01:34:39.3207746+01:00" endTime="2014-01-13T01:34:39.6777951+01:00" testType="13cdc9d9-ddb5-4fa4-a97d-d965ccfc6d4b" outcome="Passed" testListId="8c84fa94-04c1-424b-9868-57a2d4851a1d" relativeResultsDirectory="fddb81cc-3e01-46ed-9756-497375de906e" resultType="DataDrivenTest">
      <Counters error="0" failed="0" timeout="0" aborted="0" inconclusive="0" passedButRunAborted="0" notRunnable="0" notExecuted="0" disconnected="0" warning="0" passed="5" completed="0" inProgress="0" pending="0" />
      <InnerResults>
        <UnitTestResult executionId="1ab3a31d-39b2-40e7-bb44-3aa12a2baaf2" parentExecutionId="fddb81cc-3e01-46ed-9756-497375de906e" testId="dbd208f0-d649-3530-deac-e77dfd7d77df" testName="AddExtensionTest" computerName="JOSHUA-PC" duration="00:00:00.0163400" startTime="2014-01-13T01:34:39.6397929+01:00" endTime="2014-01-13T01:34:39.6607941+01:00" testType="13cdc9d9-ddb5-4fa4-a97d-d965ccfc6d4b" outcome="Passed" testListId="8c84fa94-04c1-424b-9868-57a2d4851a1d" relativeResultsDirectory="fddb81cc-3e01-46ed-9756-497375de906e" dataRowInfo="0" resultType="DataDrivenDataRow" />
        <UnitTestResult executionId="23a5e7dd-3214-43ac-9bf7-fde436f58be8" parentExecutionId="fddb81cc-3e01-46ed-9756-497375de906e" testId="dbd208f0-d649-3530-deac-e77dfd7d77df" testName="AddExtensionTest" computerName="JOSHUA-PC" duration="00:00:00.0005930" startTime="2014-01-13T01:34:39.6607941+01:00" endTime="2014-01-13T01:34:39.6607941+01:00" testType="13cdc9d9-ddb5-4fa4-a97d-d965ccfc6d4b" outcome="Passed" testListId="8c84fa94-04c1-424b-9868-57a2d4851a1d" relativeResultsDirectory="fddb81cc-3e01-46ed-9756-497375de906e" dataRowInfo="1" resultType="DataDrivenDataRow" />
        <UnitTestResult executionId="b14a1e36-3f72-4138-b58c-9c79007fdada" parentExecutionId="fddb81cc-3e01-46ed-9756-497375de906e" testId="dbd208f0-d649-3530-deac-e77dfd7d77df" testName="AddExtensionTest" computerName="JOSHUA-PC" duration="00:00:00.0000260" startTime="2014-01-13T01:34:39.6607941+01:00" endTime="2014-01-13T01:34:39.6607941+01:00" testType="13cdc9d9-ddb5-4fa4-a97d-d965ccfc6d4b" outcome="Passed" testListId="8c84fa94-04c1-424b-9868-57a2d4851a1d" relativeResultsDirectory="fddb81cc-3e01-46ed-9756-497375de906e" dataRowInfo="2" resultType="DataDrivenDataRow" />
        <UnitTestResult executionId="fb46a585-cf2f-4b80-9fbf-94dbd6ced63a" parentExecutionId="fddb81cc-3e01-46ed-9756-497375de906e" testId="dbd208f0-d649-3530-deac-e77dfd7d77df" testName="AddExtensionTest" computerName="JOSHUA-PC" duration="00:00:00.0000199" startTime="2014-01-13T01:34:39.6607941+01:00" endTime="2014-01-13T01:34:39.6607941+01:00" testType="13cdc9d9-ddb5-4fa4-a97d-d965ccfc6d4b" outcome="Passed" testListId="8c84fa94-04c1-424b-9868-57a2d4851a1d" relativeResultsDirectory="fddb81cc-3e01-46ed-9756-497375de906e" dataRowInfo="3" resultType="DataDrivenDataRow" />
        <UnitTestResult executionId="a8179dcf-1e95-4b9f-bb9a-fe2cd604e0d5" parentExecutionId="fddb81cc-3e01-46ed-9756-497375de906e" testId="dbd208f0-d649-3530-deac-e77dfd7d77df" testName="AddExtensionTest" computerName="JOSHUA-PC" duration="00:00:00.0000206" startTime="2014-01-13T01:34:39.6607941+01:00" endTime="2014-01-13T01:34:39.6607941+01:00" testType="13cdc9d9-ddb5-4fa4-a97d-d965ccfc6d4b" outcome="Passed" testListId="8c84fa94-04c1-424b-9868-57a2d4851a1d" relativeResultsDirectory="fddb81cc-3e01-46ed-9756-497375de906e" dataRowInfo="4" resultType="DataDrivenDataRow" />
      </InnerResults>
    </UnitTestResult>
  </Results>
</TestRun>