Date x,Date y,Exception
10/01/2014 22:05,10/01/2014 22:05,
,,InvalidCastException
01/01/0001 00:00:00,01/01/0001 00:00:00,
01/01/0001 00:00:00,10/01/2014 22:05,AssertFailedException
10/01/2014 22:05,31/12/9999 23:59,AssertFailedException
